module go-articles-sbercode-spring-2021

go 1.15

require (
	github.com/go-openapi/errors v0.20.0
	github.com/go-openapi/loads v0.20.2
	github.com/go-openapi/runtime v0.19.26
	github.com/go-openapi/spec v0.20.3
	github.com/go-openapi/strfmt v0.20.0
	github.com/go-openapi/swag v0.19.14
	github.com/go-openapi/validate v0.20.2
	github.com/go-pg/pg/v10 v10.7.7
	github.com/jessevdk/go-flags v1.4.0
	golang.org/x/net v0.0.0-20210119194325-5f4716e94777
)
